Mutation	Nucleotide change	Amino acid change	Resistance	PMID
katG p.R463L	CGG -> CTG	R -> L	Unknown	-
idsA2 n.-98C>T	C -> T	Promoter mutations	Unknown	-
gyrA p.E21Q	GAG -> CAG	E -> Q	Unknown	-
gyrA p.S95T	AGC -> ACC	S -> T	Unknown	-
gyrA p.G668D	GGC -> GAC	G -> D	Unknown	-
gidB p.L160H	CTC -> CAC	L -> H	Unknown	-
embC p.R738Q	CGG -> CAG	R -> Q	Unknown	-
ahpC n.-88G>A	G -> A	Promoter mutations	Unknown	-