Mutation	Nucleotide change	Amino acid change	Resistance	PMID
gyrA p.E21Q	GAG -> CAG	E -> Q	Unknown	-
gyrA p.S95T	AGC -> ACC	S -> T	Unknown	-
gyrA p.G668D	GGC -> GAC	G -> D	Unknown	-
rpoC p.G594E	GGG -> GAG	G -> E	Unknown	-
embC p.V981L	GTG -> CTG	V -> L	Unknown	-