Mutation	Nucleotide change	Amino acid change	Resistance	PMID
katG p.G169S	GGC -> AGC	G -> S	Unknown	-
katG p.R463L	CGG -> CTG	R -> L	Unknown	-
gyrA p.E21Q	GAG -> CAG	E -> Q	Unknown	-
gyrA p.S95T	AGC -> ACC	S -> T	Unknown	-
gyrA p.G668D	GGC -> GAC	G -> D	Unknown	-
fabG1_promoter n.-15C>T	C -> T	Promoter mutations	ETHIONAMIDE,ISONIAZID	10944230;19209951;23561273;19486070;Wang_et_al._2013;10884617;22461677;Jin_et_al._2012
rpoB p.S450L	TCG -> TTG	S -> L	RIFAMPICIN	23561273;23995137;24055765;Shi_et_al._2013;Wang_et_al._2013;22461677;19864480;Jin_et_al._2012;19209951
gidB p.E92D	GAA -> GAC	E -> D	Unknown	-
embC p.V417M	GTG -> ATG	V -> M	Unknown	-
embA n.-27delT	del -> T	Promoter mutations	Unknown	-
embA p.T652K	ACG -> AAG	T -> K	Unknown	-